{
    "current_page": 1,
    "data": [
        {
            "id": 4,
            "title": "このアプリを完成させる",
            "description": "2018107",
            "created_at": "2018-10-04 16:31:42",
            "updated_at": "2018-10-04 16:31:42"
        },
        {
            "id": 5,
            "title": "このアプリをどう改造するか考える",
            "description": "20180905",
            "created_at": "2018-10-04 17:04:33",
            "updated_at": "2018-10-04 17:04:33"
        },
        {
            "id": 6,
            "title": "テスト",
            "description": "１",
            "created_at": "2018-10-20 07:51:29",
            "updated_at": "2018-10-20 07:51:29"
        },
        {
            "id": 7,
            "title": "test2",
            "description": "test",
            "created_at": "2018-10-20 07:52:06",
            "updated_at": "2018-10-20 07:52:06"
        },
        {
            "id": 8,
            "title": "test3",
            "description": "test",
            "created_at": "2018-10-20 07:52:14",
            "updated_at": "2018-10-20 07:52:14"
        }
    ],
    "first_page_url": "http://localhost:8000/api/todos?page=1",
    "from": 1,
    "last_page": 2,
    "last_page_url": "http://localhost:8000/api/todos?page=2",
    "next_page_url": "http://localhost:8000/api/todos?page=2",
    "path": "http://localhost:8000/api/todos",
    "per_page": 5,
    "prev_page_url": null,
    "to": 5,
    "total": 9
}